{"count":13441,"next":"https://api.octopus.energy/v1/electricity-meter-points/2199992333370/meters/19L3865760/consumption/?page=2","previous":null,"results":[{"consumption":0.182,"interval_start":"2020-12-24T23:00:00Z","interval_end":"2020-12-24T23:30:00Z"},{"consumption":0.273,"interval_start":"2020-12-24T22:30:00Z","interval_end":"2020-12-24T23:00:00Z"},{"consumption":0.197,"interval_start":"2020-12-24T22:00:00Z","interval_end":"2020-12-24T22:30:00Z"},{"consumption":0.257,"interval_start":"2020-12-24T21:30:00Z","interval_end":"2020-12-24T22:00:00Z"},{"consumption":0.374,"interval_start":"2020-12-24T21:00:00Z","interval_end":"2020-12-24T21:30:00Z"},{"consumption":0.248,"interval_start":"2020-12-24T20:30:00Z","interval_end":"2020-12-24T21:00:00Z"},{"consumption":0.221,"interval_start":"2020-12-24T20:00:00Z","interval_end":"2020-12-24T20:30:00Z"},{"consumption":0.278,"interval_start":"2020-12-24T19:30:00Z","interval_end":"2020-12-24T20:00:00Z"},{"consumption":0.268,"interval_start":"2020-12-24T19:00:00Z","interval_end":"2020-12-24T19:30:00Z"},{"consumption":0.245,"interval_start":"2020-12-24T18:30:00Z","interval_end":"2020-12-24T19:00:00Z"},{"consumption":0.295,"interval_start":"2020-12-24T18:00:00Z","interval_end":"2020-12-24T18:30:00Z"},{"consumption":0.589,"interval_start":"2020-12-24T17:30:00Z","interval_end":"2020-12-24T18:00:00Z"},{"consumption":0.287,"interval_start":"2020-12-24T17:00:00Z","interval_end":"2020-12-24T17:30:00Z"},{"consumption":0.245,"interval_start":"2020-12-24T16:30:00Z","interval_end":"2020-12-24T17:00:00Z"},{"consumption":0.289,"interval_start":"2020-12-24T16:00:00Z","interval_end":"2020-12-24T16:30:00Z"},{"consumption":0.203,"interval_start":"2020-12-24T15:30:00Z","interval_end":"2020-12-24T16:00:00Z"},{"consumption":0.365,"interval_start":"2020-12-24T15:00:00Z","interval_end":"2020-12-24T15:30:00Z"},{"consumption":0.393,"interval_start":"2020-12-24T14:30:00Z","interval_end":"2020-12-24T15:00:00Z"},{"consumption":0.395,"interval_start":"2020-12-24T14:00:00Z","interval_end":"2020-12-24T14:30:00Z"},{"consumption":0.783,"interval_start":"2020-12-24T13:30:00Z","interval_end":"2020-12-24T14:00:00Z"},{"consumption":1.057,"interval_start":"2020-12-24T13:00:00Z","interval_end":"2020-12-24T13:30:00Z"},{"consumption":0.168,"interval_start":"2020-12-24T12:30:00Z","interval_end":"2020-12-24T13:00:00Z"},{"consumption":0.294,"interval_start":"2020-12-24T12:00:00Z","interval_end":"2020-12-24T12:30:00Z"},{"consumption":0.352,"interval_start":"2020-12-24T11:30:00Z","interval_end":"2020-12-24T12:00:00Z"},{"consumption":0.292,"interval_start":"2020-12-24T11:00:00Z","interval_end":"2020-12-24T11:30:00Z"},{"consumption":0.505,"interval_start":"2020-12-24T10:30:00Z","interval_end":"2020-12-24T11:00:00Z"},{"consumption":0.411,"interval_start":"2020-12-24T10:00:00Z","interval_end":"2020-12-24T10:30:00Z"},{"consumption":0.269,"interval_start":"2020-12-24T09:30:00Z","interval_end":"2020-12-24T10:00:00Z"},{"consumption":0.145,"interval_start":"2020-12-24T09:00:00Z","interval_end":"2020-12-24T09:30:00Z"},{"consumption":0.261,"interval_start":"2020-12-24T08:30:00Z","interval_end":"2020-12-24T09:00:00Z"},{"consumption":0.154,"interval_start":"2020-12-24T08:00:00Z","interval_end":"2020-12-24T08:30:00Z"},{"consumption":0.161,"interval_start":"2020-12-24T07:30:00Z","interval_end":"2020-12-24T08:00:00Z"},{"consumption":0.764,"interval_start":"2020-12-24T07:00:00Z","interval_end":"2020-12-24T07:30:00Z"},{"consumption":0.149,"interval_start":"2020-12-24T06:30:00Z","interval_end":"2020-12-24T07:00:00Z"},{"consumption":0.137,"interval_start":"2020-12-24T06:00:00Z","interval_end":"2020-12-24T06:30:00Z"},{"consumption":0.149,"interval_start":"2020-12-24T05:30:00Z","interval_end":"2020-12-24T06:00:00Z"},{"consumption":0.445,"interval_start":"2020-12-24T05:00:00Z","interval_end":"2020-12-24T05:30:00Z"},{"consumption":0.076,"interval_start":"2020-12-24T04:30:00Z","interval_end":"2020-12-24T05:00:00Z"},{"consumption":0.089,"interval_start":"2020-12-24T04:00:00Z","interval_end":"2020-12-24T04:30:00Z"},{"consumption":0.095,"interval_start":"2020-12-24T03:30:00Z","interval_end":"2020-12-24T04:00:00Z"},{"consumption":0.103,"interval_start":"2020-12-24T03:00:00Z","interval_end":"2020-12-24T03:30:00Z"},{"consumption":0.109,"interval_start":"2020-12-24T02:30:00Z","interval_end":"2020-12-24T03:00:00Z"},{"consumption":0.114,"interval_start":"2020-12-24T02:00:00Z","interval_end":"2020-12-24T02:30:00Z"},{"consumption":0.14,"interval_start":"2020-12-24T01:30:00Z","interval_end":"2020-12-24T02:00:00Z"},{"consumption":0.143,"interval_start":"2020-12-24T01:00:00Z","interval_end":"2020-12-24T01:30:00Z"},{"consumption":0.147,"interval_start":"2020-12-24T00:30:00Z","interval_end":"2020-12-24T01:00:00Z"},{"consumption":0.108,"interval_start":"2020-12-24T00:00:00Z","interval_end":"2020-12-24T00:30:00Z"},{"consumption":0.177,"interval_start":"2020-12-23T23:30:00Z","interval_end":"2020-12-24T00:00:00Z"},{"consumption":0.194,"interval_start":"2020-12-23T23:00:00Z","interval_end":"2020-12-23T23:30:00Z"},{"consumption":0.353,"interval_start":"2020-12-23T22:30:00Z","interval_end":"2020-12-23T23:00:00Z"},{"consumption":0.379,"interval_start":"2020-12-23T22:00:00Z","interval_end":"2020-12-23T22:30:00Z"},{"consumption":0.334,"interval_start":"2020-12-23T21:30:00Z","interval_end":"2020-12-23T22:00:00Z"},{"consumption":0.292,"interval_start":"2020-12-23T21:00:00Z","interval_end":"2020-12-23T21:30:00Z"},{"consumption":0.407,"interval_start":"2020-12-23T20:30:00Z","interval_end":"2020-12-23T21:00:00Z"},{"consumption":0.423,"interval_start":"2020-12-23T20:00:00Z","interval_end":"2020-12-23T20:30:00Z"},{"consumption":0.454,"interval_start":"2020-12-23T19:30:00Z","interval_end":"2020-12-23T20:00:00Z"},{"consumption":0.54,"interval_start":"2020-12-23T19:00:00Z","interval_end":"2020-12-23T19:30:00Z"},{"consumption":0.433,"interval_start":"2020-12-23T18:30:00Z","interval_end":"2020-12-23T19:00:00Z"},{"consumption":0.362,"interval_start":"2020-12-23T18:00:00Z","interval_end":"2020-12-23T18:30:00Z"},{"consumption":0.367,"interval_start":"2020-12-23T17:30:00Z","interval_end":"2020-12-23T18:00:00Z"},{"consumption":0.366,"interval_start":"2020-12-23T17:00:00Z","interval_end":"2020-12-23T17:30:00Z"},{"consumption":0.558,"interval_start":"2020-12-23T16:30:00Z","interval_end":"2020-12-23T17:00:00Z"},{"consumption":0.459,"interval_start":"2020-12-23T16:00:00Z","interval_end":"2020-12-23T16:30:00Z"},{"consumption":0.394,"interval_start":"2020-12-23T15:30:00Z","interval_end":"2020-12-23T16:00:00Z"},{"consumption":0.313,"interval_start":"2020-12-23T15:00:00Z","interval_end":"2020-12-23T15:30:00Z"},{"consumption":0.493,"interval_start":"2020-12-23T14:30:00Z","interval_end":"2020-12-23T15:00:00Z"},{"consumption":0.386,"interval_start":"2020-12-23T14:00:00Z","interval_end":"2020-12-23T14:30:00Z"},{"consumption":0.472,"interval_start":"2020-12-23T13:30:00Z","interval_end":"2020-12-23T14:00:00Z"},{"consumption":0.185,"interval_start":"2020-12-23T13:00:00Z","interval_end":"2020-12-23T13:30:00Z"},{"consumption":0.213,"interval_start":"2020-12-23T12:30:00Z","interval_end":"2020-12-23T13:00:00Z"},{"consumption":0.393,"interval_start":"2020-12-23T12:00:00Z","interval_end":"2020-12-23T12:30:00Z"},{"consumption":1.595,"interval_start":"2020-12-23T11:30:00Z","interval_end":"2020-12-23T12:00:00Z"},{"consumption":0.768,"interval_start":"2020-12-23T11:00:00Z","interval_end":"2020-12-23T11:30:00Z"},{"consumption":0.351,"interval_start":"2020-12-23T10:30:00Z","interval_end":"2020-12-23T11:00:00Z"},{"consumption":0.304,"interval_start":"2020-12-23T10:00:00Z","interval_end":"2020-12-23T10:30:00Z"},{"consumption":1.281,"interval_start":"2020-12-23T09:30:00Z","interval_end":"2020-12-23T10:00:00Z"},{"consumption":0.25,"interval_start":"2020-12-23T09:00:00Z","interval_end":"2020-12-23T09:30:00Z"},{"consumption":0.317,"interval_start":"2020-12-23T08:30:00Z","interval_end":"2020-12-23T09:00:00Z"},{"consumption":0.264,"interval_start":"2020-12-23T08:00:00Z","interval_end":"2020-12-23T08:30:00Z"},{"consumption":0.208,"interval_start":"2020-12-23T07:30:00Z","interval_end":"2020-12-23T08:00:00Z"},{"consumption":0.192,"interval_start":"2020-12-23T07:00:00Z","interval_end":"2020-12-23T07:30:00Z"},{"consumption":0.168,"interval_start":"2020-12-23T06:30:00Z","interval_end":"2020-12-23T07:00:00Z"},{"consumption":0.099,"interval_start":"2020-12-23T06:00:00Z","interval_end":"2020-12-23T06:30:00Z"},{"consumption":0.098,"interval_start":"2020-12-23T05:30:00Z","interval_end":"2020-12-23T06:00:00Z"},{"consumption":0.096,"interval_start":"2020-12-23T05:00:00Z","interval_end":"2020-12-23T05:30:00Z"},{"consumption":0.1,"interval_start":"2020-12-23T04:30:00Z","interval_end":"2020-12-23T05:00:00Z"},{"consumption":0.104,"interval_start":"2020-12-23T04:00:00Z","interval_end":"2020-12-23T04:30:00Z"},{"consumption":0.086,"interval_start":"2020-12-23T03:30:00Z","interval_end":"2020-12-23T04:00:00Z"},{"consumption":0.074,"interval_start":"2020-12-23T03:00:00Z","interval_end":"2020-12-23T03:30:00Z"},{"consumption":0.099,"interval_start":"2020-12-23T02:30:00Z","interval_end":"2020-12-23T03:00:00Z"},{"consumption":0.098,"interval_start":"2020-12-23T02:00:00Z","interval_end":"2020-12-23T02:30:00Z"},{"consumption":0.105,"interval_start":"2020-12-23T01:30:00Z","interval_end":"2020-12-23T02:00:00Z"},{"consumption":0.112,"interval_start":"2020-12-23T01:00:00Z","interval_end":"2020-12-23T01:30:00Z"},{"consumption":0.106,"interval_start":"2020-12-23T00:30:00Z","interval_end":"2020-12-23T01:00:00Z"},{"consumption":0.076,"interval_start":"2020-12-23T00:00:00Z","interval_end":"2020-12-23T00:30:00Z"},{"consumption":0.127,"interval_start":"2020-12-22T23:30:00Z","interval_end":"2020-12-23T00:00:00Z"},{"consumption":0.719,"interval_start":"2020-12-22T23:00:00Z","interval_end":"2020-12-22T23:30:00Z"},{"consumption":0.231,"interval_start":"2020-12-22T22:30:00Z","interval_end":"2020-12-22T23:00:00Z"},{"consumption":0.346,"interval_start":"2020-12-22T22:00:00Z","interval_end":"2020-12-22T22:30:00Z"},{"consumption":0.375,"interval_start":"2020-12-22T21:30:00Z","interval_end":"2020-12-22T22:00:00Z"}]}