{"count":69885,"next":"https://api.octopus.energy/v1/products/AGILE-18-02-21/electricity-tariffs/E-1R-AGILE-18-02-21-K/standard-unit-rates/?page=2","previous":null,"results":[{"value_exc_vat":4.86,"value_inc_vat":5.103,"valid_from":"2020-12-26T22:30:00Z","valid_to":"2020-12-26T23:00:00Z"},{"value_exc_vat":9.33,"value_inc_vat":9.7965,"valid_from":"2020-12-26T22:00:00Z","valid_to":"2020-12-26T22:30:00Z"},{"value_exc_vat":5.02,"value_inc_vat":5.271,"valid_from":"2020-12-26T21:30:00Z","valid_to":"2020-12-26T22:00:00Z"},{"value_exc_vat":10.32,"value_inc_vat":10.836,"valid_from":"2020-12-26T21:00:00Z","valid_to":"2020-12-26T21:30:00Z"},{"value_exc_vat":7.04,"value_inc_vat":7.392,"valid_from":"2020-12-26T20:30:00Z","valid_to":"2020-12-26T21:00:00Z"},{"value_exc_vat":10.74,"value_inc_vat":11.277,"valid_from":"2020-12-26T20:00:00Z","valid_to":"2020-12-26T20:30:00Z"},{"value_exc_vat":11.46,"value_inc_vat":12.033,"valid_from":"2020-12-26T19:30:00Z","valid_to":"2020-12-26T20:00:00Z"},{"value_exc_vat":14.08,"value_inc_vat":14.784,"valid_from":"2020-12-26T19:00:00Z","valid_to":"2020-12-26T19:30:00Z"},{"value_exc_vat":23.22,"value_inc_vat":24.381,"valid_from":"2020-12-26T18:30:00Z","valid_to":"2020-12-26T19:00:00Z"},{"value_exc_vat":24.98,"value_inc_vat":26.229,"valid_from":"2020-12-26T18:00:00Z","valid_to":"2020-12-26T18:30:00Z"},{"value_exc_vat":25.86,"value_inc_vat":27.153,"valid_from":"2020-12-26T17:30:00Z","valid_to":"2020-12-26T18:00:00Z"},{"value_exc_vat":26.74,"value_inc_vat":28.077,"valid_from":"2020-12-26T17:00:00Z","valid_to":"2020-12-26T17:30:00Z"},{"value_exc_vat":27.31,"value_inc_vat":28.6755,"valid_from":"2020-12-26T16:30:00Z","valid_to":"2020-12-26T17:00:00Z"},{"value_exc_vat":24.17,"value_inc_vat":25.3785,"valid_from":"2020-12-26T16:00:00Z","valid_to":"2020-12-26T16:30:00Z"},{"value_exc_vat":10.85,"value_inc_vat":11.3925,"valid_from":"2020-12-26T15:30:00Z","valid_to":"2020-12-26T16:00:00Z"},{"value_exc_vat":8.95,"value_inc_vat":9.3975,"valid_from":"2020-12-26T15:00:00Z","valid_to":"2020-12-26T15:30:00Z"},{"value_exc_vat":10.91,"value_inc_vat":11.4555,"valid_from":"2020-12-26T14:30:00Z","valid_to":"2020-12-26T15:00:00Z"},{"value_exc_vat":11.26,"value_inc_vat":11.823,"valid_from":"2020-12-26T14:00:00Z","valid_to":"2020-12-26T14:30:00Z"},{"value_exc_vat":12.76,"value_inc_vat":13.398,"valid_from":"2020-12-26T13:30:00Z","valid_to":"2020-12-26T14:00:00Z"},{"value_exc_vat":13.93,"value_inc_vat":14.6265,"valid_from":"2020-12-26T13:00:00Z","valid_to":"2020-12-26T13:30:00Z"},{"value_exc_vat":13.09,"value_inc_vat":13.7445,"valid_from":"2020-12-26T12:30:00Z","valid_to":"2020-12-26T13:00:00Z"},{"value_exc_vat":12.94,"value_inc_vat":13.587,"valid_from":"2020-12-26T12:00:00Z","valid_to":"2020-12-26T12:30:00Z"},{"value_exc_vat":12.8,"value_inc_vat":13.44,"valid_from":"2020-12-26T11:30:00Z","valid_to":"2020-12-26T12:00:00Z"},{"value_exc_vat":11.75,"value_inc_vat":12.3375,"valid_from":"2020-12-26T11:00:00Z","valid_to":"2020-12-26T11:30:00Z"},{"value_exc_vat":12.01,"value_inc_vat":12.6105,"valid_from":"2020-12-26T10:30:00Z","valid_to":"2020-12-26T11:00:00Z"},{"value_exc_vat":11.44,"value_inc_vat":12.012,"valid_from":"2020-12-26T10:00:00Z","valid_to":"2020-12-26T10:30:00Z"},{"value_exc_vat":10.12,"value_inc_vat":10.626,"valid_from":"2020-12-26T09:30:00Z","valid_to":"2020-12-26T10:00:00Z"},{"value_exc_vat":6.03,"value_inc_vat":6.3315,"valid_from":"2020-12-26T09:00:00Z","valid_to":"2020-12-26T09:30:00Z"},{"value_exc_vat":9.31,"value_inc_vat":9.7755,"valid_from":"2020-12-26T08:30:00Z","valid_to":"2020-12-26T09:00:00Z"},{"value_exc_vat":4.51,"value_inc_vat":4.7355,"valid_from":"2020-12-26T08:00:00Z","valid_to":"2020-12-26T08:30:00Z"},{"value_exc_vat":6.29,"value_inc_vat":6.6045,"valid_from":"2020-12-26T07:30:00Z","valid_to":"2020-12-26T08:00:00Z"},{"value_exc_vat":3.89,"value_inc_vat":4.0845,"valid_from":"2020-12-26T07:00:00Z","valid_to":"2020-12-26T07:30:00Z"},{"value_exc_vat":5.3,"value_inc_vat":5.565,"valid_from":"2020-12-26T06:30:00Z","valid_to":"2020-12-26T07:00:00Z"},{"value_exc_vat":3.65,"value_inc_vat":3.8325,"valid_from":"2020-12-26T06:00:00Z","valid_to":"2020-12-26T06:30:00Z"},{"value_exc_vat":4.4,"value_inc_vat":4.62,"valid_from":"2020-12-26T05:30:00Z","valid_to":"2020-12-26T06:00:00Z"},{"value_exc_vat":4.4,"value_inc_vat":4.62,"valid_from":"2020-12-26T05:00:00Z","valid_to":"2020-12-26T05:30:00Z"},{"value_exc_vat":4.22,"value_inc_vat":4.431,"valid_from":"2020-12-26T04:30:00Z","valid_to":"2020-12-26T05:00:00Z"},{"value_exc_vat":4.84,"value_inc_vat":5.082,"valid_from":"2020-12-26T04:00:00Z","valid_to":"2020-12-26T04:30:00Z"},{"value_exc_vat":4.05,"value_inc_vat":4.2525,"valid_from":"2020-12-26T03:30:00Z","valid_to":"2020-12-26T04:00:00Z"},{"value_exc_vat":5.28,"value_inc_vat":5.544,"valid_from":"2020-12-26T03:00:00Z","valid_to":"2020-12-26T03:30:00Z"},{"value_exc_vat":4.4,"value_inc_vat":4.62,"valid_from":"2020-12-26T02:30:00Z","valid_to":"2020-12-26T03:00:00Z"},{"value_exc_vat":6.25,"value_inc_vat":6.5625,"valid_from":"2020-12-26T02:00:00Z","valid_to":"2020-12-26T02:30:00Z"},{"value_exc_vat":5.1,"value_inc_vat":5.355,"valid_from":"2020-12-26T01:30:00Z","valid_to":"2020-12-26T02:00:00Z"},{"value_exc_vat":7.59,"value_inc_vat":7.9695,"valid_from":"2020-12-26T01:00:00Z","valid_to":"2020-12-26T01:30:00Z"},{"value_exc_vat":7.04,"value_inc_vat":7.392,"valid_from":"2020-12-26T00:30:00Z","valid_to":"2020-12-26T01:00:00Z"},{"value_exc_vat":7.22,"value_inc_vat":7.581,"valid_from":"2020-12-26T00:00:00Z","valid_to":"2020-12-26T00:30:00Z"},{"value_exc_vat":11.09,"value_inc_vat":11.6445,"valid_from":"2020-12-25T23:30:00Z","valid_to":"2020-12-26T00:00:00Z"},{"value_exc_vat":12.32,"value_inc_vat":12.936,"valid_from":"2020-12-25T23:00:00Z","valid_to":"2020-12-25T23:30:00Z"},{"value_exc_vat":10.78,"value_inc_vat":11.319,"valid_from":"2020-12-25T22:30:00Z","valid_to":"2020-12-25T23:00:00Z"},{"value_exc_vat":11.88,"value_inc_vat":12.474,"valid_from":"2020-12-25T22:00:00Z","valid_to":"2020-12-25T22:30:00Z"},{"value_exc_vat":10.78,"value_inc_vat":11.319,"valid_from":"2020-12-25T21:30:00Z","valid_to":"2020-12-25T22:00:00Z"},{"value_exc_vat":12.32,"value_inc_vat":12.936,"valid_from":"2020-12-25T21:00:00Z","valid_to":"2020-12-25T21:30:00Z"},{"value_exc_vat":11.66,"value_inc_vat":12.243,"valid_from":"2020-12-25T20:30:00Z","valid_to":"2020-12-25T21:00:00Z"},{"value_exc_vat":12.58,"value_inc_vat":13.209,"valid_from":"2020-12-25T20:00:00Z","valid_to":"2020-12-25T20:30:00Z"},{"value_exc_vat":12.01,"value_inc_vat":12.6105,"valid_from":"2020-12-25T19:30:00Z","valid_to":"2020-12-25T20:00:00Z"},{"value_exc_vat":13.86,"value_inc_vat":14.553,"valid_from":"2020-12-25T19:00:00Z","valid_to":"2020-12-25T19:30:00Z"},{"value_exc_vat":22.56,"value_inc_vat":23.688,"valid_from":"2020-12-25T18:30:00Z","valid_to":"2020-12-25T19:00:00Z"},{"value_exc_vat":23.0,"value_inc_vat":24.15,"valid_from":"2020-12-25T18:00:00Z","valid_to":"2020-12-25T18:30:00Z"},{"value_exc_vat":23.22,"value_inc_vat":24.381,"valid_from":"2020-12-25T17:30:00Z","valid_to":"2020-12-25T18:00:00Z"},{"value_exc_vat":23.55,"value_inc_vat":24.7275,"valid_from":"2020-12-25T17:00:00Z","valid_to":"2020-12-25T17:30:00Z"},{"value_exc_vat":24.14,"value_inc_vat":25.347,"valid_from":"2020-12-25T16:30:00Z","valid_to":"2020-12-25T17:00:00Z"},{"value_exc_vat":23.42,"value_inc_vat":24.591,"valid_from":"2020-12-25T16:00:00Z","valid_to":"2020-12-25T16:30:00Z"},{"value_exc_vat":12.08,"value_inc_vat":12.684,"valid_from":"2020-12-25T15:30:00Z","valid_to":"2020-12-25T16:00:00Z"},{"value_exc_vat":11.88,"value_inc_vat":12.474,"valid_from":"2020-12-25T15:00:00Z","valid_to":"2020-12-25T15:30:00Z"},{"value_exc_vat":11.44,"value_inc_vat":12.012,"valid_from":"2020-12-25T14:30:00Z","valid_to":"2020-12-25T15:00:00Z"},{"value_exc_vat":13.4,"value_inc_vat":14.07,"valid_from":"2020-12-25T14:00:00Z","valid_to":"2020-12-25T14:30:00Z"},{"value_exc_vat":13.73,"value_inc_vat":14.4165,"valid_from":"2020-12-25T13:30:00Z","valid_to":"2020-12-25T14:00:00Z"},{"value_exc_vat":15.14,"value_inc_vat":15.897,"valid_from":"2020-12-25T13:00:00Z","valid_to":"2020-12-25T13:30:00Z"},{"value_exc_vat":15.49,"value_inc_vat":16.2645,"valid_from":"2020-12-25T12:30:00Z","valid_to":"2020-12-25T13:00:00Z"},{"value_exc_vat":14.52,"value_inc_vat":15.246,"valid_from":"2020-12-25T12:00:00Z","valid_to":"2020-12-25T12:30:00Z"},{"value_exc_vat":14.92,"value_inc_vat":15.666,"valid_from":"2020-12-25T11:30:00Z","valid_to":"2020-12-25T12:00:00Z"},{"value_exc_vat":12.98,"value_inc_vat":13.629,"valid_from":"2020-12-25T11:00:00Z","valid_to":"2020-12-25T11:30:00Z"},{"value_exc_vat":13.02,"value_inc_vat":13.671,"valid_from":"2020-12-25T10:30:00Z","valid_to":"2020-12-25T11:00:00Z"},{"value_exc_vat":13.2,"value_inc_vat":13.86,"valid_from":"2020-12-25T10:00:00Z","valid_to":"2020-12-25T10:30:00Z"},{"value_exc_vat":14.32,"value_inc_vat":15.036,"valid_from":"2020-12-25T09:30:00Z","valid_to":"2020-12-25T10:00:00Z"},{"value_exc_vat":13.66,"value_inc_vat":14.343,"valid_from":"2020-12-25T09:00:00Z","valid_to":"2020-12-25T09:30:00Z"},{"value_exc_vat":13.11,"value_inc_vat":13.7655,"valid_from":"2020-12-25T08:30:00Z","valid_to":"2020-12-25T09:00:00Z"},{"value_exc_vat":11.44,"value_inc_vat":12.012,"valid_from":"2020-12-25T08:00:00Z","valid_to":"2020-12-25T08:30:00Z"},{"value_exc_vat":11.0,"value_inc_vat":11.55,"valid_from":"2020-12-25T07:30:00Z","valid_to":"2020-12-25T08:00:00Z"},{"value_exc_vat":11.0,"value_inc_vat":11.55,"valid_from":"2020-12-25T07:00:00Z","valid_to":"2020-12-25T07:30:00Z"},{"value_exc_vat":12.34,"value_inc_vat":12.957,"valid_from":"2020-12-25T06:30:00Z","valid_to":"2020-12-25T07:00:00Z"},{"value_exc_vat":10.82,"value_inc_vat":11.361,"valid_from":"2020-12-25T06:00:00Z","valid_to":"2020-12-25T06:30:00Z"},{"value_exc_vat":11.0,"value_inc_vat":11.55,"valid_from":"2020-12-25T05:30:00Z","valid_to":"2020-12-25T06:00:00Z"},{"value_exc_vat":10.47,"value_inc_vat":10.9935,"valid_from":"2020-12-25T05:00:00Z","valid_to":"2020-12-25T05:30:00Z"},{"value_exc_vat":11.06,"value_inc_vat":11.613,"valid_from":"2020-12-25T04:30:00Z","valid_to":"2020-12-25T05:00:00Z"},{"value_exc_vat":11.84,"value_inc_vat":12.432,"valid_from":"2020-12-25T04:00:00Z","valid_to":"2020-12-25T04:30:00Z"},{"value_exc_vat":11.44,"value_inc_vat":12.012,"valid_from":"2020-12-25T03:30:00Z","valid_to":"2020-12-25T04:00:00Z"},{"value_exc_vat":12.34,"value_inc_vat":12.957,"valid_from":"2020-12-25T03:00:00Z","valid_to":"2020-12-25T03:30:00Z"},{"value_exc_vat":11.44,"value_inc_vat":12.012,"valid_from":"2020-12-25T02:30:00Z","valid_to":"2020-12-25T03:00:00Z"},{"value_exc_vat":12.76,"value_inc_vat":13.398,"valid_from":"2020-12-25T02:00:00Z","valid_to":"2020-12-25T02:30:00Z"},{"value_exc_vat":12.76,"value_inc_vat":13.398,"valid_from":"2020-12-25T01:30:00Z","valid_to":"2020-12-25T02:00:00Z"},{"value_exc_vat":13.64,"value_inc_vat":14.322,"valid_from":"2020-12-25T01:00:00Z","valid_to":"2020-12-25T01:30:00Z"},{"value_exc_vat":14.52,"value_inc_vat":15.246,"valid_from":"2020-12-25T00:30:00Z","valid_to":"2020-12-25T01:00:00Z"},{"value_exc_vat":13.93,"value_inc_vat":14.6265,"valid_from":"2020-12-25T00:00:00Z","valid_to":"2020-12-25T00:30:00Z"},{"value_exc_vat":14.08,"value_inc_vat":14.784,"valid_from":"2020-12-24T23:30:00Z","valid_to":"2020-12-25T00:00:00Z"},{"value_exc_vat":13.2,"value_inc_vat":13.86,"valid_from":"2020-12-24T23:00:00Z","valid_to":"2020-12-24T23:30:00Z"},{"value_exc_vat":10.82,"value_inc_vat":11.361,"valid_from":"2020-12-24T22:30:00Z","valid_to":"2020-12-24T23:00:00Z"},{"value_exc_vat":10.98,"value_inc_vat":11.529,"valid_from":"2020-12-24T22:00:00Z","valid_to":"2020-12-24T22:30:00Z"},{"value_exc_vat":10.99,"value_inc_vat":11.5395,"valid_from":"2020-12-24T21:30:00Z","valid_to":"2020-12-24T22:00:00Z"},{"value_exc_vat":11.22,"value_inc_vat":11.781,"valid_from":"2020-12-24T21:00:00Z","valid_to":"2020-12-24T21:30:00Z"}]}