{"count":69885,"next":"https://api.octopus.energy/v1/products/AGILE-18-02-21/electricity-tariffs/E-1R-AGILE-18-02-21-K/standard-unit-rates/?page=3","previous":"https://api.octopus.energy/v1/products/AGILE-18-02-21/electricity-tariffs/E-1R-AGILE-18-02-21-K/standard-unit-rates/","results":[{"value_exc_vat":11.44,"value_inc_vat":12.012,"valid_from":"2020-12-24T20:30:00Z","valid_to":"2020-12-24T21:00:00Z"},{"value_exc_vat":11.55,"value_inc_vat":12.1275,"valid_from":"2020-12-24T20:00:00Z","valid_to":"2020-12-24T20:30:00Z"},{"value_exc_vat":12.28,"value_inc_vat":12.894,"valid_from":"2020-12-24T19:30:00Z","valid_to":"2020-12-24T20:00:00Z"},{"value_exc_vat":13.22,"value_inc_vat":13.881,"valid_from":"2020-12-24T19:00:00Z","valid_to":"2020-12-24T19:30:00Z"},{"value_exc_vat":25.18,"value_inc_vat":26.439,"valid_from":"2020-12-24T18:30:00Z","valid_to":"2020-12-24T19:00:00Z"},{"value_exc_vat":27.4,"value_inc_vat":28.77,"valid_from":"2020-12-24T18:00:00Z","valid_to":"2020-12-24T18:30:00Z"},{"value_exc_vat":29.6,"value_inc_vat":31.08,"valid_from":"2020-12-24T17:30:00Z","valid_to":"2020-12-24T18:00:00Z"},{"value_exc_vat":29.6,"value_inc_vat":31.08,"valid_from":"2020-12-24T17:00:00Z","valid_to":"2020-12-24T17:30:00Z"},{"value_exc_vat":28.28,"value_inc_vat":29.694,"valid_from":"2020-12-24T16:30:00Z","valid_to":"2020-12-24T17:00:00Z"},{"value_exc_vat":24.08,"value_inc_vat":25.284,"valid_from":"2020-12-24T16:00:00Z","valid_to":"2020-12-24T16:30:00Z"},{"value_exc_vat":10.34,"value_inc_vat":10.857,"valid_from":"2020-12-24T15:30:00Z","valid_to":"2020-12-24T16:00:00Z"},{"value_exc_vat":11.0,"value_inc_vat":11.55,"valid_from":"2020-12-24T15:00:00Z","valid_to":"2020-12-24T15:30:00Z"},{"value_exc_vat":11.0,"value_inc_vat":11.55,"valid_from":"2020-12-24T14:30:00Z","valid_to":"2020-12-24T15:00:00Z"},{"value_exc_vat":11.09,"value_inc_vat":11.6445,"valid_from":"2020-12-24T14:00:00Z","valid_to":"2020-12-24T14:30:00Z"},{"value_exc_vat":11.88,"value_inc_vat":12.474,"valid_from":"2020-12-24T13:30:00Z","valid_to":"2020-12-24T14:00:00Z"},{"value_exc_vat":11.99,"value_inc_vat":12.5895,"valid_from":"2020-12-24T13:00:00Z","valid_to":"2020-12-24T13:30:00Z"},{"value_exc_vat":11.88,"value_inc_vat":12.474,"valid_from":"2020-12-24T12:30:00Z","valid_to":"2020-12-24T13:00:00Z"},{"value_exc_vat":12.12,"value_inc_vat":12.726,"valid_from":"2020-12-24T12:00:00Z","valid_to":"2020-12-24T12:30:00Z"},{"value_exc_vat":11.44,"value_inc_vat":12.012,"valid_from":"2020-12-24T11:30:00Z","valid_to":"2020-12-24T12:00:00Z"},{"value_exc_vat":11.31,"value_inc_vat":11.8755,"valid_from":"2020-12-24T11:00:00Z","valid_to":"2020-12-24T11:30:00Z"},{"value_exc_vat":12.03,"value_inc_vat":12.6315,"valid_from":"2020-12-24T10:30:00Z","valid_to":"2020-12-24T11:00:00Z"},{"value_exc_vat":11.66,"value_inc_vat":12.243,"valid_from":"2020-12-24T10:00:00Z","valid_to":"2020-12-24T10:30:00Z"},{"value_exc_vat":11.88,"value_inc_vat":12.474,"valid_from":"2020-12-24T09:30:00Z","valid_to":"2020-12-24T10:00:00Z"},{"value_exc_vat":11.26,"value_inc_vat":11.823,"valid_from":"2020-12-24T09:00:00Z","valid_to":"2020-12-24T09:30:00Z"},{"value_exc_vat":11.22,"value_inc_vat":11.781,"valid_from":"2020-12-24T08:30:00Z","valid_to":"2020-12-24T09:00:00Z"},{"value_exc_vat":10.08,"value_inc_vat":10.584,"valid_from":"2020-12-24T08:00:00Z","valid_to":"2020-12-24T08:30:00Z"},{"value_exc_vat":10.56,"value_inc_vat":11.088,"valid_from":"2020-12-24T07:30:00Z","valid_to":"2020-12-24T08:00:00Z"},{"value_exc_vat":8.91,"value_inc_vat":9.3555,"valid_from":"2020-12-24T07:00:00Z","valid_to":"2020-12-24T07:30:00Z"},{"value_exc_vat":7.7,"value_inc_vat":8.085,"valid_from":"2020-12-24T06:30:00Z","valid_to":"2020-12-24T07:00:00Z"},{"value_exc_vat":5.72,"value_inc_vat":6.006,"valid_from":"2020-12-24T06:00:00Z","valid_to":"2020-12-24T06:30:00Z"},{"value_exc_vat":1.94,"value_inc_vat":2.037,"valid_from":"2020-12-24T05:30:00Z","valid_to":"2020-12-24T06:00:00Z"},{"value_exc_vat":0.0,"value_inc_vat":0.0,"valid_from":"2020-12-24T05:00:00Z","valid_to":"2020-12-24T05:30:00Z"},{"value_exc_vat":0.44,"value_inc_vat":0.462,"valid_from":"2020-12-24T04:30:00Z","valid_to":"2020-12-24T05:00:00Z"},{"value_exc_vat":1.32,"value_inc_vat":1.386,"valid_from":"2020-12-24T04:00:00Z","valid_to":"2020-12-24T04:30:00Z"},{"value_exc_vat":1.39,"value_inc_vat":1.4595,"valid_from":"2020-12-24T03:30:00Z","valid_to":"2020-12-24T04:00:00Z"},{"value_exc_vat":2.75,"value_inc_vat":2.8875,"valid_from":"2020-12-24T03:00:00Z","valid_to":"2020-12-24T03:30:00Z"},{"value_exc_vat":2.64,"value_inc_vat":2.772,"valid_from":"2020-12-24T02:30:00Z","valid_to":"2020-12-24T03:00:00Z"},{"value_exc_vat":4.4,"value_inc_vat":4.62,"valid_from":"2020-12-24T02:00:00Z","valid_to":"2020-12-24T02:30:00Z"},{"value_exc_vat":7.17,"value_inc_vat":7.5285,"valid_from":"2020-12-24T01:30:00Z","valid_to":"2020-12-24T02:00:00Z"},{"value_exc_vat":9.02,"value_inc_vat":9.471,"valid_from":"2020-12-24T01:00:00Z","valid_to":"2020-12-24T01:30:00Z"},{"value_exc_vat":10.74,"value_inc_vat":11.277,"valid_from":"2020-12-24T00:30:00Z","valid_to":"2020-12-24T01:00:00Z"},{"value_exc_vat":10.63,"value_inc_vat":11.1615,"valid_from":"2020-12-24T00:00:00Z","valid_to":"2020-12-24T00:30:00Z"},{"value_exc_vat":11.88,"value_inc_vat":12.474,"valid_from":"2020-12-23T23:30:00Z","valid_to":"2020-12-24T00:00:00Z"},{"value_exc_vat":12.76,"value_inc_vat":13.398,"valid_from":"2020-12-23T23:00:00Z","valid_to":"2020-12-23T23:30:00Z"},{"value_exc_vat":10.14,"value_inc_vat":10.647,"valid_from":"2020-12-23T22:30:00Z","valid_to":"2020-12-23T23:00:00Z"},{"value_exc_vat":11.62,"value_inc_vat":12.201,"valid_from":"2020-12-23T22:00:00Z","valid_to":"2020-12-23T22:30:00Z"},{"value_exc_vat":11.99,"value_inc_vat":12.5895,"valid_from":"2020-12-23T21:30:00Z","valid_to":"2020-12-23T22:00:00Z"},{"value_exc_vat":12.1,"value_inc_vat":12.705,"valid_from":"2020-12-23T21:00:00Z","valid_to":"2020-12-23T21:30:00Z"},{"value_exc_vat":11.84,"value_inc_vat":12.432,"valid_from":"2020-12-23T20:30:00Z","valid_to":"2020-12-23T21:00:00Z"},{"value_exc_vat":12.54,"value_inc_vat":13.167,"valid_from":"2020-12-23T20:00:00Z","valid_to":"2020-12-23T20:30:00Z"},{"value_exc_vat":11.87,"value_inc_vat":12.4635,"valid_from":"2020-12-23T19:30:00Z","valid_to":"2020-12-23T20:00:00Z"},{"value_exc_vat":12.98,"value_inc_vat":13.629,"valid_from":"2020-12-23T19:00:00Z","valid_to":"2020-12-23T19:30:00Z"},{"value_exc_vat":23.55,"value_inc_vat":24.7275,"valid_from":"2020-12-23T18:30:00Z","valid_to":"2020-12-23T19:00:00Z"},{"value_exc_vat":24.76,"value_inc_vat":25.998,"valid_from":"2020-12-23T18:00:00Z","valid_to":"2020-12-23T18:30:00Z"},{"value_exc_vat":26.08,"value_inc_vat":27.384,"valid_from":"2020-12-23T17:30:00Z","valid_to":"2020-12-23T18:00:00Z"},{"value_exc_vat":26.3,"value_inc_vat":27.615,"valid_from":"2020-12-23T17:00:00Z","valid_to":"2020-12-23T17:30:00Z"},{"value_exc_vat":26.3,"value_inc_vat":27.615,"valid_from":"2020-12-23T16:30:00Z","valid_to":"2020-12-23T17:00:00Z"},{"value_exc_vat":23.88,"value_inc_vat":25.074,"valid_from":"2020-12-23T16:00:00Z","valid_to":"2020-12-23T16:30:00Z"},{"value_exc_vat":10.27,"value_inc_vat":10.7835,"valid_from":"2020-12-23T15:30:00Z","valid_to":"2020-12-23T16:00:00Z"},{"value_exc_vat":10.12,"value_inc_vat":10.626,"valid_from":"2020-12-23T15:00:00Z","valid_to":"2020-12-23T15:30:00Z"},{"value_exc_vat":10.14,"value_inc_vat":10.647,"valid_from":"2020-12-23T14:30:00Z","valid_to":"2020-12-23T15:00:00Z"},{"value_exc_vat":10.63,"value_inc_vat":11.1615,"valid_from":"2020-12-23T14:00:00Z","valid_to":"2020-12-23T14:30:00Z"},{"value_exc_vat":11.02,"value_inc_vat":11.571,"valid_from":"2020-12-23T13:30:00Z","valid_to":"2020-12-23T14:00:00Z"},{"value_exc_vat":12.76,"value_inc_vat":13.398,"valid_from":"2020-12-23T13:00:00Z","valid_to":"2020-12-23T13:30:00Z"},{"value_exc_vat":13.2,"value_inc_vat":13.86,"valid_from":"2020-12-23T12:30:00Z","valid_to":"2020-12-23T13:00:00Z"},{"value_exc_vat":13.2,"value_inc_vat":13.86,"valid_from":"2020-12-23T12:00:00Z","valid_to":"2020-12-23T12:30:00Z"},{"value_exc_vat":13.64,"value_inc_vat":14.322,"valid_from":"2020-12-23T11:30:00Z","valid_to":"2020-12-23T12:00:00Z"},{"value_exc_vat":13.2,"value_inc_vat":13.86,"valid_from":"2020-12-23T11:00:00Z","valid_to":"2020-12-23T11:30:00Z"},{"value_exc_vat":13.2,"value_inc_vat":13.86,"valid_from":"2020-12-23T10:30:00Z","valid_to":"2020-12-23T11:00:00Z"},{"value_exc_vat":13.2,"value_inc_vat":13.86,"valid_from":"2020-12-23T10:00:00Z","valid_to":"2020-12-23T10:30:00Z"},{"value_exc_vat":14.08,"value_inc_vat":14.784,"valid_from":"2020-12-23T09:30:00Z","valid_to":"2020-12-23T10:00:00Z"},{"value_exc_vat":14.08,"value_inc_vat":14.784,"valid_from":"2020-12-23T09:00:00Z","valid_to":"2020-12-23T09:30:00Z"},{"value_exc_vat":13.64,"value_inc_vat":14.322,"valid_from":"2020-12-23T08:30:00Z","valid_to":"2020-12-23T09:00:00Z"},{"value_exc_vat":13.2,"value_inc_vat":13.86,"valid_from":"2020-12-23T08:00:00Z","valid_to":"2020-12-23T08:30:00Z"},{"value_exc_vat":12.32,"value_inc_vat":12.936,"valid_from":"2020-12-23T07:30:00Z","valid_to":"2020-12-23T08:00:00Z"},{"value_exc_vat":11.44,"value_inc_vat":12.012,"valid_from":"2020-12-23T07:00:00Z","valid_to":"2020-12-23T07:30:00Z"},{"value_exc_vat":11.04,"value_inc_vat":11.592,"valid_from":"2020-12-23T06:30:00Z","valid_to":"2020-12-23T07:00:00Z"},{"value_exc_vat":11.0,"value_inc_vat":11.55,"valid_from":"2020-12-23T06:00:00Z","valid_to":"2020-12-23T06:30:00Z"},{"value_exc_vat":9.9,"value_inc_vat":10.395,"valid_from":"2020-12-23T05:30:00Z","valid_to":"2020-12-23T06:00:00Z"},{"value_exc_vat":9.46,"value_inc_vat":9.933,"valid_from":"2020-12-23T05:00:00Z","valid_to":"2020-12-23T05:30:00Z"},{"value_exc_vat":9.46,"value_inc_vat":9.933,"valid_from":"2020-12-23T04:30:00Z","valid_to":"2020-12-23T05:00:00Z"},{"value_exc_vat":9.62,"value_inc_vat":10.101,"valid_from":"2020-12-23T04:00:00Z","valid_to":"2020-12-23T04:30:00Z"},{"value_exc_vat":9.68,"value_inc_vat":10.164,"valid_from":"2020-12-23T03:30:00Z","valid_to":"2020-12-23T04:00:00Z"},{"value_exc_vat":11.88,"value_inc_vat":12.474,"valid_from":"2020-12-23T03:00:00Z","valid_to":"2020-12-23T03:30:00Z"},{"value_exc_vat":9.9,"value_inc_vat":10.395,"valid_from":"2020-12-23T02:30:00Z","valid_to":"2020-12-23T03:00:00Z"},{"value_exc_vat":11.0,"value_inc_vat":11.55,"valid_from":"2020-12-23T02:00:00Z","valid_to":"2020-12-23T02:30:00Z"},{"value_exc_vat":12.1,"value_inc_vat":12.705,"valid_from":"2020-12-23T01:30:00Z","valid_to":"2020-12-23T02:00:00Z"},{"value_exc_vat":13.2,"value_inc_vat":13.86,"valid_from":"2020-12-23T01:00:00Z","valid_to":"2020-12-23T01:30:00Z"},{"value_exc_vat":13.2,"value_inc_vat":13.86,"valid_from":"2020-12-23T00:30:00Z","valid_to":"2020-12-23T01:00:00Z"},{"value_exc_vat":12.06,"value_inc_vat":12.663,"valid_from":"2020-12-23T00:00:00Z","valid_to":"2020-12-23T00:30:00Z"},{"value_exc_vat":13.2,"value_inc_vat":13.86,"valid_from":"2020-12-22T23:30:00Z","valid_to":"2020-12-23T00:00:00Z"},{"value_exc_vat":13.64,"value_inc_vat":14.322,"valid_from":"2020-12-22T23:00:00Z","valid_to":"2020-12-22T23:30:00Z"},{"value_exc_vat":11.0,"value_inc_vat":11.55,"valid_from":"2020-12-22T22:30:00Z","valid_to":"2020-12-22T23:00:00Z"},{"value_exc_vat":11.4,"value_inc_vat":11.97,"valid_from":"2020-12-22T22:00:00Z","valid_to":"2020-12-22T22:30:00Z"},{"value_exc_vat":11.22,"value_inc_vat":11.781,"valid_from":"2020-12-22T21:30:00Z","valid_to":"2020-12-22T22:00:00Z"},{"value_exc_vat":11.92,"value_inc_vat":12.516,"valid_from":"2020-12-22T21:00:00Z","valid_to":"2020-12-22T21:30:00Z"},{"value_exc_vat":12.8,"value_inc_vat":13.44,"valid_from":"2020-12-22T20:30:00Z","valid_to":"2020-12-22T21:00:00Z"},{"value_exc_vat":13.95,"value_inc_vat":14.6475,"valid_from":"2020-12-22T20:00:00Z","valid_to":"2020-12-22T20:30:00Z"},{"value_exc_vat":15.47,"value_inc_vat":16.2435,"valid_from":"2020-12-22T19:30:00Z","valid_to":"2020-12-22T20:00:00Z"},{"value_exc_vat":16.9,"value_inc_vat":17.745,"valid_from":"2020-12-22T19:00:00Z","valid_to":"2020-12-22T19:30:00Z"}]}